put 'Courses', 'R1','S:id',1001
put 'Courses', 'R2','S:id',1002
put 'Courses', 'R3','S:id',1003
put 'Courses', 'R1','S:name','Deep'
put 'Courses', 'R1','S:name','Deepak'
put 'Courses', 'R2','S:name','Avita'
put 'Courses', 'R3','S:name','Eve'
put 'Courses', 'R1','S:course_name','java'
put 'Courses', 'R2','S:course_name','SQL'
put 'Courses', 'R3','S:course_name','SQL'
put 'Courses', 'R1','S:fees',1500
put 'Courses', 'R2','S:fees',1000
put 'Courses', 'R3','S:fees',1000
put 'Courses', 'R1','S:amt_submitted',1000
put 'Courses', 'R1','S:amt_submitted',700
scan 'Courses'